<?xml version="1.0" encoding="UTF-8"?>
<session version="1.0">
<refactoring comment="Move element &apos;main&apos; to &apos;BubbleSort/src&apos;&#x0D;&#x0A;- Original project: &apos;gitApp&apos;&#x0D;&#x0A;- Destination element: &apos;BubbleSort/src&apos;&#x0D;&#x0A;- Original element: &apos;main&apos;&#x0D;&#x0A;- Update references to refactored element" description="Move folder" destination="=BubbleSort/src" element1="src/main" files="0" flags="589830" folders="1" id="org.eclipse.jdt.ui.move" policy="org.eclipse.jdt.ui.moveResources" qualified="false" references="true" stamp="1523724942583" units="0" version="1.0"/>
</session>